^D:\Education\course3\SystemProg\lab5\Project1\Interface\Interface.vcxproj
D:\Education\course3\SystemProg\lab5\Project1\x64\Debug\Interface.lib
D:\Education\course3\SystemProg\lab5\Project1\x64\Debug\Interface.exp
