^D:\EDUCATION\COURSE3\SYSTEMPROG\LAB5\PROJECT1\PROJECT1\INTERFACE.CPP
/c /ZI /JMC /nologo /W3 /WX- /diagnostics:column /sdl /Od /D _DEBUG /D _CONSOLE /D _WINDLL /D _UNICODE /D UNICODE /Gm- /EHsc /RTC1 /MDd /GS /fp:precise /Zc:wchar_t /Zc:forScope /Zc:inline /permissive- /Fo"X64\DEBUG\\" /Fd"X64\DEBUG\VC143.PDB" /external:W3 /Gd /TP /FC D:\EDUCATION\COURSE3\SYSTEMPROG\LAB5\PROJECT1\PROJECT1\INTERFACE.CPP
^D:\EDUCATION\COURSE3\SYSTEMPROG\LAB5\PROJECT1\PROJECT1\CALCULATION.CPP
/c /ZI /JMC /nologo /W3 /WX- /diagnostics:column /sdl /Od /D _DEBUG /D _CONSOLE /D _WINDLL /D _UNICODE /D UNICODE /Gm- /EHsc /RTC1 /MDd /GS /fp:precise /Zc:wchar_t /Zc:forScope /Zc:inline /permissive- /Fo"X64\DEBUG\\" /Fd"X64\DEBUG\VC143.PDB" /external:W3 /Gd /TP /FC D:\EDUCATION\COURSE3\SYSTEMPROG\LAB5\PROJECT1\PROJECT1\CALCULATION.CPP
