^D:\EDUCATION\COURSE3\SYSTEMPROG\LAB5\PROJECT1\PROJECT1\CALCULATION.CPP
C:\WINDOWS\GLOBALIZATION\SORTING\SORTDEFAULT.NLS
D:\PROGRAMM\VISUAL STUDIO\VS\VC\TOOLS\MSVC\14.37.32822\BIN\HOSTX64\X64\1033\CLUI.DLL
C:\WINDOWS\SYSTEM32\TZRES.DLL
D:\EDUCATION\COURSE3\SYSTEMPROG\LAB5\PROJECT1\PROJECT1\INTERFACE.H
