^D:\EDUCATION\COURSE3\SYSTEMPROG\LAB5\PROJECT1\TESTPROJECT\X64\DEBUG\MAIN.OBJ
/OUT:"D:\EDUCATION\COURSE3\SYSTEMPROG\LAB5\PROJECT1\X64\DEBUG\TESTPROJECT.EXE" /INCREMENTAL /ILK:"X64\DEBUG\TESTPROJECT.ILK" /NOLOGO KERNEL32.LIB USER32.LIB GDI32.LIB WINSPOOL.LIB COMDLG32.LIB ADVAPI32.LIB SHELL32.LIB OLE32.LIB OLEAUT32.LIB UUID.LIB ODBC32.LIB ODBCCP32.LIB /MANIFEST /MANIFESTUAC:"level='asInvoker' uiAccess='false'" /manifest:embed /DEBUG /PDB:"D:\EDUCATION\COURSE3\SYSTEMPROG\LAB5\PROJECT1\X64\DEBUG\TESTPROJECT.PDB" /SUBSYSTEM:CONSOLE /TLBID:1 /DYNAMICBASE /NXCOMPAT /IMPLIB:"D:\EDUCATION\COURSE3\SYSTEMPROG\LAB5\PROJECT1\X64\DEBUG\TESTPROJECT.LIB" /MACHINE:X64 X64\DEBUG\MAIN.OBJ
^C:\USERS\PAVLO\SOURCE\REPOS\SYSPROGLAB05\PROJECT1\TESTPROJECT\X64\DEBUG\MAIN.OBJ
/OUT:"C:\USERS\PAVLO\SOURCE\REPOS\SYSPROGLAB05\PROJECT1\X64\DEBUG\TESTPROJECT.EXE" /INCREMENTAL /ILK:"X64\DEBUG\TESTPROJECT.ILK" /NOLOGO KERNEL32.LIB USER32.LIB GDI32.LIB WINSPOOL.LIB COMDLG32.LIB ADVAPI32.LIB SHELL32.LIB OLE32.LIB OLEAUT32.LIB UUID.LIB ODBC32.LIB ODBCCP32.LIB /MANIFEST /MANIFESTUAC:"level='asInvoker' uiAccess='false'" /manifest:embed /DEBUG /PDB:"C:\USERS\PAVLO\SOURCE\REPOS\SYSPROGLAB05\PROJECT1\X64\DEBUG\TESTPROJECT.PDB" /SUBSYSTEM:CONSOLE /TLBID:1 /DYNAMICBASE /NXCOMPAT /IMPLIB:"C:\USERS\PAVLO\SOURCE\REPOS\SYSPROGLAB05\PROJECT1\X64\DEBUG\TESTPROJECT.LIB" /MACHINE:X64 X64\DEBUG\MAIN.OBJ
